{
  "images" : [
    {
      "filename" : "icon-3 copy 2@1x.pdf",
      "idiom" : "universal"
    },
    {
      "appearances" : [
        {
          "appearance" : "luminosity",
          "value" : "dark"
        }
      ],
      "filename" : "@1xpiggy-bank copy 3.pdf",
      "idiom" : "universal"
    }
  ],
  "info" : {
    "author" : "xcode",
    "version" : 1
  },
  "properties" : {
    "preserves-vector-representation" : true,
    "template-rendering-intent" : "original"
  }
}
